…
# Assign column names
colnames(beers) <- c("Beer","Beer_ID","ABV","IBU","Brewery_id","Style","Ounces")
colnames(breweries) <- c("Brew_ID","Breweries","City","State")
both <- beers %>% inner_join(breweries, by = c("Brewery_id" = "Brew_ID"))
```

1. How many breweries are present in each state?
------------------------------------------------

``` r
brews_state <- breweries %>% group_by(State) %>% count()
brews_state
```

    ## # A tibble: 51 x 2
    ## # Groups:   State [51]
    ##    State     n
    ##    <chr> <int>
    ##  1 " AK"     7
    ##  2 " AL"     3
    ##  3 " AR"     2
    ##  4 " AZ"    11
    ##  5 " CA"    39
    ##  6 " CO"    47
    ##  7 " CT"     8
    ##  8 " DC"     1
    ##  9 " DE"     2
    ## 10 " FL"    15
    ## # ... with 41 more rows
…
